"表示名","defaultキー設定","defaultパッド設定","defaultマウス設定","キー設定","パッド設定","マウス設定","キー変更可？","パッド変更可？","マウス変更可？","キー解説","押し状況","受付許可",
"決定",144,301,0,144,301,0,1,1,1,"話す、項目の決定、イベントのスキップや高速化、
ダッシュ移動などが割り当てられます。",0,0,
"キャンセル",145,302,1,132,302,1,1,1,1,"項目のキャンセル、メニュー欄の表示などが割り当てられます。",0,0,
"サブ１",146,303,-1,146,303,-1,1,1,1,"特殊機能の実行や、ユニットステータスの表示を行います。",0,0,
"サブ２",142,304,2,142,304,2,1,1,1,"押している間、移動速度が変化します。
このとき、HUDは一時的に表示されなくなります。",0,0,
"↑",117,0,-1,117,0,-1,1,1,0,"方向キーと同様の役割を果たします。",0,0,
"←",130,0,-1,130,0,-1,1,1,0,"方向キーと同様の役割を果たします。",0,0,
"↓",131,0,-1,131,0,-1,1,1,0,"方向キーと同様の役割を果たします。",0,0,
"→",132,0,-1,145,0,-1,1,1,0,"方向キーと同様の役割を果たします。",0,0,
"武器切り替え",102,308,-1,102,308,-1,1,1,1,"ユニット選択時、持っている武器を切り替えます。
武器の変形も、このボタンで行います。",0,0,
"HUD切り替え",103,306,-1,103,306,-1,1,1,1,"全体マップ、地形解説の表示切替を行います。
SRPGモードで動作します。",0,0,
"戻る",116,305,4,116,305,4,1,1,1,"ユニット、武器などの切り替えや、
ページ送りを行います。",0,0,
"進む",118,307,3,118,307,3,1,1,1,"ユニット、武器などの切り替えや、
ページ送りを行います。",0,0,
"マウスで移動",150,0,-1,150,0,-1,1,1,1,"キャラやマップカーソルが、マウスポインタを追尾するモードに
切り替えるボタンです。",0,0,
